<svg width="403" height="380" viewBox="0 0 403 380" fill="none" xmlns="http://www.w3.org/2000/svg">
<path fill-rule="evenodd" clip-rule="evenodd" d="M168 13.5C168 22.1665 167.821 27 167.5 27C167.173 27 167 36.752 167 55.2555V83.5105L172.745 89.2555C175.905 92.415 178.717 95 178.996 95C179.492 95 235 150.255 235 150.749C235 150.887 234.6 151 234.111 151C233.621 151 232.896 151.45 232.5 152C232.104 152.55 231.428 153 231 153C230.572 153 229.896 153.45 229.5 154C229.104 154.55 228.379 155 227.889 155C227.4 155 227 155.225 227 155.5C227 155.775 226.6 156 226.111 156C225.621 156 224.896 156.45 224.5 157C224.104 157.55 223.428 158 223 158C222.572 158 221.896 158.45 221.5 159C221.104 159.55 220.428 160 220 160C219.572 160 218.896 160.45 218.5 161C218.104 161.55 217.428 162 217 162C216.572 162 215.896 162.45 215.5 163C215.104 163.55 214.379 164 213.889 164C213.4 164 213 164.225 213 164.5C213 164.775 212.6 165 212.111 165C211.621 165 210.896 165.45 210.5 166C210.104 166.55 209.428 167 209 167C208.572 167 207.896 167.45 207.5 168C207.104 168.55 206.428 169 206 169C205.572 169 204.896 169.45 204.5 170C204.104 170.55 203.428 171 203 171C202.572 171 201.896 171.45 201.5 172C201.104 172.55 200.379 173 199.889 173C199.4 173 199 173.225 199 173.5C199 173.775 198.6 174 198.111 174C197.621 174 196.896 174.45 196.5 175C196.104 175.55 195.428 176 195 176C194.572 176 193.896 176.45 193.5 177C193.104 177.55 192.428 178 192 178C191.572 178 190.896 178.45 190.5 179C190.104 179.55 189.428 180 189 180C188.572 180 187.896 180.45 187.5 181C187.104 181.55 186.379 182 185.889 182C185.4 182 185 182.225 185 182.5C185 182.775 184.6 183 184.111 183C183.621 183 182.896 183.45 182.5 184C182.104 184.55 181.428 185 181 185C180.572 185 179.896 185.45 179.5 186C179.104 186.55 178.428 187 178 187C177.572 187 176.896 187.45 176.5 188C176.104 188.55 175.428 189 175 189C174.572 189 173.896 189.45 173.5 190C173.104 190.55 172.379 191 171.889 191C171.4 191 171 191.225 171 191.5C171 191.775 170.6 192 170.111 192C169.621 192 168.896 192.45 168.5 193C168.104 193.55 167.428 194 167 194C166.572 194 165.896 194.45 165.5 195C164.755 196.033 163 196.384 163 195.5C163 195.225 162.641 195 162.201 195C161.761 195 160.77 194.325 160 193.5C159.23 192.675 158.329 192 158 192C157.671 192 156.77 191.325 156 190.5C155.23 189.675 154.329 189 154 189C153.671 189 152.77 188.325 152 187.5C151.23 186.675 150.329 186 150 186C149.671 186 148.77 185.325 148 184.5C147.23 183.675 146.329 183 146 183C145.671 183 144.77 182.325 144 181.5C143.23 180.675 142.334 180 142.01 180C141.687 180 140.557 179.1 139.5 178C138.443 176.9 137.313 176 136.99 176C136.666 176 135.77 175.325 135 174.5C134.23 173.675 133.334 173 133.01 173C132.687 173 131.557 172.1 130.5 171C129.443 169.9 128.318 169 128 169C127.682 169 126.557 168.1 125.5 167C124.443 165.9 123.313 165 122.99 165C122.666 165 121.771 164.325 121 163.5C120.229 162.675 119.337 162 119.017 162C118.697 162 117.34 160.875 116 159.5C114.66 158.125 113.311 157 113 157C112.689 157 111.34 155.875 110 154.5C108.66 153.125 107.323 152 107.027 152C106.315 152 94 139.669 94 138.956C94 138.651 94.675 137.77 95.5 137C96.325 136.23 97 135.349 97 135.044C97 134.337 109.313 122 110.019 122C110.31 122 112.102 120.425 114 118.5C115.898 116.575 117.702 115 118.009 115C118.315 115 119.66 113.875 121 112.5C122.34 111.125 123.689 110 124 110C124.311 110 125.66 108.875 127 107.5C128.339 106.125 129.693 105 130.007 105C130.321 105 131.443 104.1 132.5 103C133.557 101.9 134.687 101 135.01 101C135.334 101 136.23 100.325 137 99.5C137.77 98.675 138.666 98 138.99 98C139.313 98 140.443 97.1 141.5 96C142.557 94.9 143.687 94 144.01 94C144.334 94 145.23 93.325 146 92.5C146.77 91.675 147.665 91 147.987 91C150.029 91 150 91.6635 150 45.2855C150 20.9285 149.887 1 149.749 1C149.254 1 72 78.5095 72 79.0055C72 79.2845 65.475 86.032 57.5 94C49.525 101.968 43 108.722 43 109.009C43 109.297 40.525 111.993 37.5 115C34.475 118.007 32 120.723 32 121.034C32 121.345 31.325 122.229 30.5 123C29.675 123.771 29 124.711 29 125.09C29 125.469 28.55 126.104 28 126.5C27.45 126.896 27 127.572 27 128C27 128.428 26.55 129.104 26 129.5C25.45 129.896 25 130.572 25 131C25 131.428 24.55 132.104 24 132.5C23.45 132.896 23 133.572 23 134C23 134.428 22.55 135.104 22 135.5C21.45 135.896 21 136.572 21 137C21 137.428 20.55 138.104 20 138.5C19.45 138.896 19 139.621 19 140.111C19 140.6 18.775 141 18.5 141C18.225 141 18 141.4 18 141.889C18 142.379 17.55 143.104 17 143.5C16.45 143.896 16 144.621 16 145.111C16 145.6 15.775 146 15.5 146C15.225 146 15 146.45 15 147C15 147.55 14.775 148 14.5 148C14.225 148 14 148.45 14 149C14 149.55 13.775 150 13.5 150C13.225 150 13 150.45 13 151C13 151.55 12.775 152 12.5 152C12.225 152 12 152.45 12 153C12 153.55 11.775 154 11.5 154C11.225 154 11 154.45 11 155C11 155.55 10.775 156 10.5 156C10.225 156 10 156.45 10 157C10 157.55 9.775 158 9.5 158C9.225 158 9 158.45 9 159C9 159.55 8.775 160 8.5 160C8.225 160 8 160.675 8 161.5C8 162.325 7.775 163 7.5 163C7.225 163 7 163.45 7 164C7 164.55 6.775 165 6.5 165C6.225 165 6 165.675 6 166.5C6 167.325 5.775 168 5.5 168C5.225 168 5 168.675 5 169.5C5 170.325 4.775 171 4.5 171C4.225 171 4 171.9 4 173C4 174.1 3.775 175 3.5 175C3.225 175 3 175.9 3 177C3 178.1 2.775 179 2.5 179C2.225 179 2 180.125 2 181.5C2 182.875 1.775 184 1.5 184C1.2085 184 1 185.667 1 188C1 190.333 0.7915 192 0.5 192C0.2 192 0 194 0 197C0 200 0.2 202 0.5 202C0.7855 202 1 203.5 1 205.5C1 207.5 1.2145 209 1.5 209C1.775 209 2 209.9 2 211C2 212.1 2.225 213 2.5 213C2.775 213 3 213.675 3 214.5C3 215.325 3.225 216 3.5 216C3.775 216 4 216.675 4 217.5C4 218.325 4.225 219 4.5 219C4.775 219 5 219.675 5 220.5C5 221.325 5.225 222 5.5 222C5.775 222 6 222.45 6 223C6 223.55 6.225 224 6.5 224C6.775 224 7 224.675 7 225.5C7 226.325 7.225 227 7.5 227C7.775 227 8 227.45 8 228C8 228.55 8.225 229 8.5 229C8.775 229 9 229.45 9 230C9 230.55 9.225 231 9.5 231C9.775 231 10 231.45 10 232C10 232.55 10.225 233 10.5 233C10.775 233 11 233.4 11 233.889C11 234.379 11.45 235.104 12 235.5C12.55 235.896 13 236.621 13 237.111C13 237.6 13.225 238 13.5 238C13.775 238 14 238.45 14 239C14 239.55 14.225 240 14.5 240C14.775 240 15 240.4 15 240.889C15 241.379 15.45 242.104 16 242.5C16.55 242.896 17 243.572 17 244C17 244.428 17.45 245.104 18 245.5C18.55 245.896 19 246.572 19 247C19 247.428 19.45 248.104 20 248.5C20.55 248.896 21 249.572 21 250C21 250.428 21.45 251.104 22 251.5C22.55 251.896 23 252.572 23 253C23 253.428 23.45 254.104 24 254.5C24.55 254.896 25 255.531 25 255.91C25 256.289 25.675 257.229 26.5 258C27.325 258.771 28 259.671 28 260C28 260.329 28.675 261.229 29.5 262C30.325 262.771 31 263.666 31 263.99C31 264.313 31.9 265.443 33 266.5C34.1 267.557 35 268.679 35 268.993C35 269.307 36.125 270.66 37.5 272C38.875 273.34 40 274.685 40 274.991C40 275.298 41.575 277.102 43.5 279C45.425 280.898 47 282.694 47 282.991C47 283.287 49.7 286.216 53 289.5C56.3 292.784 59 295.704 59 295.989C59 296.665 76.3335 314 77.009 314C77.293 314 80.664 317.15 84.5 321C88.336 324.85 91.714 328 92.0065 328C92.299 328 94.546 330.025 97 332.5C99.454 334.975 101.706 337 102.005 337C102.304 337 104.102 338.575 106 340.5C107.898 342.425 109.702 344 110.009 344C110.315 344 111.66 345.125 113 346.5C114.34 347.875 115.689 349 116 349C116.311 349 117.66 350.125 119 351.5C120.34 352.875 121.689 354 122 354C122.311 354 123.66 355.125 125 356.5C126.34 357.875 127.692 359 128.007 359C128.321 359 129.443 359.9 130.5 361C131.557 362.1 132.682 363 133 363C133.318 363 134.443 363.9 135.5 365C136.557 366.1 137.682 367 138 367C138.318 367 139.443 367.9 140.5 369C141.557 370.1 142.687 371 143.01 371C143.334 371 144.23 371.675 145 372.5C145.77 373.325 146.761 374 147.201 374C147.641 374 148 374.225 148 374.5C148 374.775 148.225 375 148.5 375C148.778 375 149 373.667 149 372C149 370.333 149.222 369 149.5 369C149.826 369 150 361.667 150 348C150 334.333 150.174 327 150.5 327C150.822 327 151 321.5 151 311.5C151 297.841 150.908 296 150.226 296C149.8 296 147.898 294.425 146 292.5C144.102 290.575 142.301 289 142 289C141.699 289 139.898 287.425 138 285.5C136.102 283.575 134.303 282 134.003 282C133.702 282 131.676 280.2 129.5 278C127.324 275.8 125.3 274 125.002 274C124.705 274 122.454 271.975 120 269.5C117.546 267.025 115.298 265 115.005 265C114.712 265 111.56 262.075 108 258.5C104.44 254.925 101.294 252 101.009 252C100.324 252 87 238.663 87 237.977C87 237.684 85.65 236.12 84 234.5C82.35 232.88 81 231.255 81 230.888C81 230.521 80.55 229.896 80 229.5C79.45 229.104 79 228.379 79 227.889C79 227.4 78.775 227 78.5 227C78.225 227 78 226.325 78 225.5C78 224.675 77.775 224 77.5 224C77.225 224 77 223.325 77 222.5C77 221.675 76.775 221 76.5 221C76.225 221 76 220.325 76 219.5C76 218.675 75.775 218 75.5 218C75.225 218 75 216.875 75 215.5C75 214.125 74.775 213 74.5 213C74.225 213 74 211.875 74 210.5C74 209.125 73.775 208 73.5 208C73.222 208 73 206.667 73 205C73 203.333 72.778 202 72.5 202C72.2085 202 72 200.333 72 198C72 195.667 71.7915 194 71.5 194C71.2 194 71 192 71 189C71 186 70.8 184 70.5 184C70.225 184 70 183.325 70 182.5C70 180.156 71.183 180.63 75 184.5C76.8985 186.425 78.7 188 79.0035 188C79.307 188 80.8805 189.35 82.5 191C84.1195 192.65 85.693 194 85.9965 194C86.3 194 88.1015 195.575 90 197.5C91.8985 199.425 93.6985 201 94 201C94.3015 201 96.1015 202.575 98 204.5C99.8985 206.425 101.699 208 102 208C102.301 208 104.102 209.575 106 211.5C107.898 213.425 109.7 215 110.004 215C110.307 215 111.881 216.35 113.5 218C115.119 219.65 116.693 221 116.996 221C117.3 221 119.102 222.575 121 224.5C122.898 226.425 124.699 228 125 228C125.301 228 127.102 229.575 129 231.5C130.898 233.425 132.699 235 133 235C133.301 235 135.102 236.575 137 238.5C138.898 240.425 140.7 242 141.004 242C141.307 242 142.88 243.35 144.5 245C146.12 246.65 147.693 248 147.996 248C148.3 248 150.102 249.575 152 251.5C153.898 253.425 155.705 255 156.015 255C156.325 255 157.443 254.1 158.5 253C159.557 251.9 160.676 251 160.988 251C161.3 251 162.88 249.65 164.5 248C166.12 246.35 167.695 245 168 245C168.305 245 169.88 243.65 171.5 242C173.12 240.35 174.695 239 175 239C175.305 239 176.88 237.65 178.5 236C180.12 234.35 181.695 233 182 233C182.305 233 183.88 231.65 185.5 230C187.12 228.35 188.695 227 189 227C189.305 227 190.88 225.65 192.5 224C194.12 222.35 195.695 221 196 221C196.305 221 197.88 219.65 199.5 218C201.12 216.35 202.697 215 203.005 215C203.313 215 204.661 213.875 206 212.5C207.339 211.125 208.687 210 208.995 210C209.303 210 210.88 208.65 212.5 207C214.12 205.35 215.695 204 216 204C216.305 204 217.88 202.65 219.5 201C221.12 199.35 222.695 198 223 198C223.305 198 224.88 196.65 226.5 195C228.12 193.35 229.695 192 230 192C230.305 192 231.88 190.65 233.5 189C235.12 187.35 236.695 186 237 186C237.305 186 238.88 184.65 240.5 183C242.12 181.35 243.695 180 244 180C244.305 180 245.88 178.65 247.5 177C249.12 175.35 250.695 174 251 174C251.305 174 252.88 172.65 254.5 171C256.12 169.35 257.694 168 258 168C258.306 168 259.88 166.65 261.5 165C263.12 163.35 264.694 162 265 162C265.306 162 266.88 160.65 268.5 159C270.12 157.35 271.694 156 272 156C272.306 156 273.88 154.65 275.5 153C277.12 151.35 278.694 150 279 150C279.306 150 280.88 148.65 282.5 147C284.12 145.35 285.694 144 286 144C286.306 144 287.88 142.65 289.5 141C291.12 139.35 292.694 138 293 138C293.306 138 294.88 136.65 296.5 135C298.12 133.35 299.694 132 300 132C300.306 132 301.88 130.65 303.5 129C305.12 127.35 306.694 126 307 126C307.306 126 308.88 124.65 310.5 123C312.12 121.35 313.694 120 314 120C314.306 120 315.88 118.65 317.5 117C319.12 115.35 320.694 114 321 114C321.306 114 322.88 112.65 324.5 111C326.12 109.35 327.694 108 328 108C328.306 108 329.88 106.65 331.5 105C333.12 103.35 334.694 102 335 102C335.306 102 336.88 100.65 338.5 99C340.12 97.35 341.694 96 342 96C342.306 96 343.88 94.65 345.5 93C347.12 91.35 348.694 90 349 90C349.306 90 350.88 88.65 352.5 87C354.12 85.35 355.694 84 356 84C356.306 84 357.88 82.65 359.5 81C361.12 79.35 362.694 78 363 78C363.306 78 364.88 76.65 366.5 75C368.12 73.35 369.694 72 370 72C370.306 72 371.88 70.65 373.5 69C375.12 67.35 376.694 66 377 66C377.306 66 378.88 64.65 380.5 63C382.12 61.35 383.694 60 384 60C384.306 60 385.88 58.65 387.5 57C389.12 55.35 390.697 54 391.005 54C391.313 54 392.66 52.875 394 51.5C395.34 50.125 396.68 49 396.979 49C397.513 49 403 43.77 403 43.261C403 43.1175 402.55 43 402 43C401.45 43 401 43.225 401 43.5C401 43.775 400.599 44 400.11 44C399.621 44 398.897 44.45 398.5 45C398.103 45.55 397.428 46 397 46C396.572 46 395.897 46.45 395.5 47C395.103 47.55 394.428 48 394 48C393.572 48 392.897 48.45 392.5 49C392.103 49.55 391.428 50 391 50C390.572 50 389.897 50.45 389.5 51C389.103 51.55 388.379 52 387.89 52C387.401 52 387 52.225 387 52.5C387 52.775 386.599 53 386.11 53C385.621 53 384.897 53.45 384.5 54C384.103 54.55 383.428 55 383 55C382.572 55 381.897 55.45 381.5 56C381.103 56.55 380.428 57 380 57C379.572 57 378.897 57.45 378.5 58C378.103 58.55 377.428 59 377 59C376.572 59 375.897 59.45 375.5 60C375.103 60.55 374.379 61 373.89 61C373.401 61 373 61.225 373 61.5C373 61.775 372.599 62 372.11 62C371.621 62 370.897 62.45 370.5 63C370.103 63.55 369.428 64 369 64C368.572 64 367.897 64.45 367.5 65C367.103 65.55 366.428 66 366 66C365.572 66 364.897 66.45 364.5 67C364.103 67.55 363.428 68 363 68C362.572 68 361.897 68.45 361.5 69C361.103 69.55 360.379 70 359.89 70C359.401 70 359 70.225 359 70.5C359 70.775 358.599 71 358.11 71C357.621 71 356.897 71.45 356.5 72C356.103 72.55 355.428 73 355 73C354.572 73 353.897 73.45 353.5 74C353.103 74.55 352.428 75 352 75C351.572 75 350.897 75.45 350.5 76C350.103 76.55 349.428 77 349 77C348.572 77 347.897 77.45 347.5 78C347.103 78.55 346.379 79 345.89 79C345.401 79 345 79.225 345 79.5C345 79.775 344.599 80 344.11 80C343.621 80 342.897 80.45 342.5 81C342.103 81.55 341.428 82 341 82C340.572 82 339.897 82.45 339.5 83C339.103 83.55 338.428 84 338 84C337.572 84 336.897 84.45 336.5 85C336.103 85.55 335.428 86 335 86C334.572 86 333.897 86.45 333.5 87C333.103 87.55 332.379 88 331.89 88C331.401 88 331 88.225 331 88.5C331 88.775 330.599 89 330.11 89C329.621 89 328.897 89.45 328.5 90C328.103 90.55 327.428 91 327 91C326.572 91 325.897 91.45 325.5 92C325.103 92.55 324.428 93 324 93C323.572 93 322.897 93.45 322.5 94C322.103 94.55 321.428 95 321 95C320.572 95 319.897 95.45 319.5 96C319.103 96.55 318.428 97 318 97C317.572 97 316.897 97.45 316.5 98C316.103 98.55 315.379 99 314.89 99C314.401 99 314 99.225 314 99.5C314 99.775 313.599 100 313.11 100C312.621 100 311.897 100.45 311.5 101C311.103 101.55 310.428 102 310 102C309.572 102 308.897 102.45 308.5 103C308.103 103.55 307.428 104 307 104C306.572 104 305.897 104.45 305.5 105C305.103 105.55 304.428 106 304 106C303.572 106 302.897 106.45 302.5 107C302.103 107.55 301.379 108 300.889 108C300.4 108 300 108.225 300 108.5C300 108.775 299.6 109 299.111 109C298.621 109 297.897 109.45 297.5 110C297.103 110.55 296.428 111 296 111C295.572 111 294.897 111.45 294.5 112C294.103 112.55 293.428 113 293 113C292.572 113 291.897 113.45 291.5 114C291.103 114.55 290.428 115 290 115C289.572 115 288.897 115.45 288.5 116C288.103 116.55 287.379 117 286.889 117C286.4 117 286 117.225 286 117.5C286 117.775 285.6 118 285.111 118C284.621 118 283.897 118.45 283.5 119C283.103 119.55 282.428 120 282 120C281.572 120 280.897 120.45 280.5 121C280.103 121.55 279.428 122 279 122C278.572 122 277.897 122.45 277.5 123C277.103 123.55 276.428 124 276 124C275.572 124 274.897 124.45 274.5 125C274.103 125.55 273.379 126 272.889 126C272.4 126 272 126.225 272 126.5C272 126.775 271.633 127 271.184 127C270.734 127 269.946 127.486 269.431 128.08C268.915 128.674 268.358 129.025 268.194 128.861C267.785 128.452 270.291 126 271.117 126C271.481 126 272.103 125.55 272.5 125C272.897 124.45 273.531 124 273.91 124C274.289 124 275.229 123.325 276 122.5C276.771 121.675 277.711 121 278.09 121C278.469 121 279.103 120.55 279.5 120C279.897 119.45 280.516 119 280.877 119C281.5 119 285 115.831 285 115.267C285 115.12 284.662 115 284.249 115C283.835 115 257.623 89.125 226 57.5C194.377 25.875 168.39 0 168.251 0C168.113 0 168 6.075 168 13.5ZM267 129.285C267 129.443 266.652 129.919 266.226 130.345C265.25 131.322 264.663 130.833 265.574 129.802C266.258 129.029 267 128.76 267 129.285ZM264 131.5C264 131.775 263.775 132 263.5 132C263.225 132 263 131.775 263 131.5C263 131.225 263.225 131 263.5 131C263.775 131 264 131.225 264 131.5ZM298.625 159.784C295.531 162.922 293 165.722 293 166.005C293 166.289 289.175 170.337 284.5 175C279.825 179.663 276 183.714 276 184C276 184.286 272.175 188.337 267.5 193C262.825 197.663 259 201.714 259 202C259 202.286 255.175 206.337 250.5 211C245.825 215.663 242 219.714 242 220C242 220.286 238.175 224.337 233.5 229C228.825 233.663 225 237.714 225 238C225 238.286 221.175 242.337 216.5 247C211.825 251.663 208 255.714 208 256C208 256.286 204.175 260.336 199.5 265C194.825 269.664 191 273.714 191 274C191 274.286 187.175 278.336 182.5 283C177.825 287.664 174 291.723 174 292.022C174 292.32 172.875 293.66 171.5 295L169 297.435V303.718C169 307.573 168.807 310 168.5 310C168.178 310 168 315.167 168 324.5C168 333.833 167.822 339 167.5 339C167.175 339 167 346.167 167 359.5C167 370.775 167.135 380 167.299 380C167.464 380 168.23 379.325 169 378.5C169.77 377.675 170.657 377 170.97 377C171.283 377 173.546 374.975 176 372.5C178.454 370.025 180.704 368 181 368C181.296 368 183.546 365.975 186 363.5C188.454 361.025 190.704 359 191 359C191.296 359 193.546 356.975 196 354.5C198.454 352.025 200.703 350 200.998 350C201.293 350 203.769 347.75 206.5 345C209.231 342.25 211.705 340 211.999 340C212.292 340 214.992 337.525 218 334.5C221.008 331.475 223.705 329 223.995 329C224.285 329 228.113 325.4 232.5 321C236.887 316.6 240.709 313 240.992 313C241.666 313 262 292.663 262 291.988C262 291.703 264.7 288.784 268 285.5C271.3 282.216 274 279.285 274 278.987C274 278.689 275.35 277.12 277 275.5C278.65 273.88 280 272.301 280 271.988C280 271.676 280.9 270.557 282 269.5C283.1 268.443 284 267.318 284 267C284 266.682 284.9 265.557 286 264.5C287.1 263.443 288 262.273 288 261.9C288 261.526 288.45 260.897 289 260.5C289.55 260.103 290 259.469 290 259.09C290 258.711 290.675 257.771 291.5 257C292.325 256.229 293 255.288 293 254.91C293 254.531 293.45 253.896 294 253.5C294.55 253.104 295 252.428 295 252C295 251.572 295.45 250.896 296 250.5C296.55 250.104 297 249.379 297 248.889C297 248.4 297.225 248 297.5 248C297.775 248 298 247.6 298 247.111C298 246.621 298.45 245.896 299 245.5C299.55 245.104 300 244.379 300 243.889C300 243.4 300.225 243 300.5 243C300.775 243 301 242.55 301 242C301 241.45 301.225 241 301.5 241C301.775 241 302 240.55 302 240C302 239.45 302.225 239 302.5 239C302.775 239 303 238.55 303 238C303 237.45 303.225 237 303.5 237C303.775 237 304 236.55 304 236C304 235.45 304.225 235 304.5 235C304.775 235 305 234.55 305 234C305 233.45 305.225 233 305.5 233C305.775 233 306 232.55 306 232C306 231.45 306.225 231 306.5 231C306.775 231 307 230.55 307 230C307 229.45 307.225 229 307.5 229C307.775 229 308 228.325 308 227.5C308 226.675 308.225 226 308.5 226C308.775 226 309 225.325 309 224.5C309 223.675 309.225 223 309.5 223C309.775 223 310 222.325 310 221.5C310 220.675 310.225 220 310.5 220C310.775 220 311 219.1 311 218C311 216.9 311.225 216 311.5 216C311.775 216 312 215.1 312 214C312 212.9 312.225 212 312.5 212C312.785 212 313 210.5 313 208.5C313 206.5 313.215 205 313.5 205C313.816 205 314 201.5 314 195.5C314 189.5 313.816 186 313.5 186C313.208 186 313 184.333 313 182C313 179.667 312.792 178 312.5 178C312.225 178 312 176.875 312 175.5C312 174.125 311.775 173 311.5 173C311.225 173 311 172.1 311 171C311 169.9 310.775 169 310.5 169C310.225 169 310 168.1 310 167C310 165.9 309.775 165 309.5 165C309.225 165 309 164.325 309 163.5C309 162.675 308.775 162 308.5 162C308.225 162 308 161.325 308 160.5C308 159.675 307.775 159 307.5 159C307.225 159 307 158.55 307 158C307 157.45 306.775 157 306.5 157C306.225 157 306 156.647 306 156.215C306 155.522 304.839 153.934 304.41 154.039C304.322 154.061 301.719 156.647 298.625 159.784Z" fill="white"/>
</svg>
